1 1 1
1000 9000 262
1000 1 179
250 3500 217
201 210 89
50910 65583 340
390225 769858 509
487881 51973 449
825005 493232 509
110353 867172 525
567608 113027 470
245182 982668 525
310859 394779 441
542864 545583 359
516404 595751 452
40275 83787 351
355379 321438 441
775722 42373 509
997909 165198 525
140189 87620 354
647563 264822 509
822875 552247 509
477846 913505 525
478295 192547 449
856977 780146 525
210428 525795 470
250133 276247 407
922846 828426 525
905066 698640 525
882373 892007 445
485525 976918 525
979548 884332 507
529531 207945 470
271191 848571 525
648035 467270 509
357474 181347 443
666260 68355 509
957299 563911 525
504225 677226 509
459613 352483 449
358766 823185 509
82636 71214 351
314229 991918 525
232424 737130 509
808299 760897 468
238190 90119 443
696919 835899 504
225519 649982 509
217250 310361 443
411269 285256 449
531464 662783 509
908015 819461 525
56927 985992 525
40906 699995 509
654531 84982 509
552874 427063 470
993787 734565 525
411674 331329 449
25940 342375 443
444513 494284 444
576194 564771 421
539281 696640 509
212983 383780 443
971353 374864 525
515226 919399 525
843093 522584 525
302255 35523 443
252243 419094 449
552900 791873 509
904550 731401 525
887264 289480 525
285293 26914 443
47707 146753 375
341376 961294 525
428230 706068 509
75374 465607 449
807645 47483 509
228343 372033 443
441407 247982 449
657045 325507 509
221865 543906 470
258818 544647 470
854365 656752 525
732363 229155 509
631674 185369 509
40936 633206 509
775341 314207 509
730259 917556 525
133859 957678 525
695922 497440 509
841782 865474 419
568526 356003 470
682370 408494 509
332808 147749 443
864547 449225 525
285778 362355 441
979303 280967 525
74787 971310 525
800561 668265 504
534518 307074 470
563517 565830 421
562662 14566 470
300192 119352 443
494182 225121 449
21125 412973 449
713650 336641 509
972703 513141 525
497674 358196 449
218965 891100 525
840995 31901 525
285995 444622 449
840993 893209 445
370153 339996 441
843666 541016 525
496121 216812 449
955758 391515 525
380528 408100 436
865274 309136 525
257620 892631 525
404409 975317 525
184341 425823 449
546149 413719 470
107569 814072 509
805836 264260 509
735180 904066 525
984561 994405 427
377584 881082 525
942665 541869 525
639752 600741 509
771697 586828 509
12979 849340 525
321158 398163 441
884353 387852 525
365761 366364 335
232221 712689 509
872220 271364 525
326925 279205 389
715891 311998 509
504410 675630 509
517527 766366 509
358110 48081 443
131251 331334 443
794954 938445 525
514671 545403 439
814854 143264 509
899698 140250 525
561544 858918 525
133640 931038 525
397557 312912 441
891368 168879 525
205624 152274 383
350807 735752 509
590733 582710 434
788843 290578 509
550419 95394 470
789694 604747 509
559774 642730 509
185667 565861 470
281678 871931 525
172811 212677 373
382564 689467 509
901454 911100 476
754681 125292 509
486763 675615 509
31749 953696 525
51814 917087 525
501994 431571 444
164865 717509 509
578135 238927 470
714390 52239 509
663926 424436 509
519230 872053 525
472859 51252 449
175005 392983 443
834408 806592 450
73031 982473 525
878109 497026 525
959033 865776 507
599612 712377 509
920855 351180 525
11897 309693 443
26462 675951 509
491911 992927 525
655210 841084 525
658479 148846 509
746301 871212 525
356594 662776 509
520005 262890 470
943845 893542 507
562409 687196 509
644409 754747 504
815477 470178 509
269843 461089 449
832664 584747 509
644910 518502 509
397313 629111 509
807126 896357 525
526489 783797 509
139253 191545 383
179713 105581 383
974258 15293 525
594248 828407 509
160518 920757 525
748629 483590 509
609475 330536 470
851634 89683 525
843160 822375 525
863379 747160 525
649982 507803 509
370591 895891 525
495082 965461 525
256065 176252 443
117618 843455 525
931887 8925 525
579543 87963 470
393163 293967 441
135391 154590 375
164576 377596 443
501328 107233 449
975920 36457 525
785198 51009 509
923112 735185 525
2328 197431 383
38344 97961 351
23868 384450 443
782869 802840 468
135381 844870 525
40412 94160 351
671532 604764 509
493948 876065 525
884681 715016 525
207783 470970 449
941910 248418 525
903393 222283 525
432358 87971 449
709819 617485 509
106822 529735 470
581547 864591 525
379725 824842 509
354067 444083 449
984282 32585 525
902730 615771 525
88838 102874 341
677934 232663 509
695994 450885 509
599704 58488 470
189131 382209 443
85841 762783 509
639578 173033 509
201713 139369 383
